digraph "void onCreate(android.os.Bundle)" {
    label="void onCreate(android.os.Bundle)";
    node [shape=box];
    "0" [style=filled,fillcolor=gray,label="r0 := @this",];
    "1" [label="r1 := @parameter0",];
    "0"->"1";
    "2" [label="specialinvoke r0.onCreate(r1)",];
    "1"->"2";
    "3" [label="r0.setContentView(2130903064)",];
    "2"->"3";
    "4" [label="$r2 = r0.findViewById(2131165245)",];
    "3"->"4";
    "5" [label="$r3 = (android.widget.TextView) $r2",];
    "4"->"5";
    "6" [label="r0.textView = $r3",];
    "5"->"6";
    "7" [label="$r4 = r0.getSystemService(\"location\")",];
    "6"->"7";
    "8" [label="$r5 = (android.location.LocationManager) $r4",];
    "7"->"8";
    "9" [label="r0.locationManager = $r5",];
    "8"->"9";
    "10" [label="android.util.Log.i(\"Activity\", \"onCreate called\")",];
    "9"->"10";
    "11" [label="r0.b = \"Hello\"",];
    "10"->"11";
    "12" [label="r0.b2 = \"Hello2\"",];
    "11"->"12";
    "13" [label="r0.b3 = \"Hello3\"",];
    "12"->"13";
    "14" [style=filled,fillcolor=lightgray,label="return",];
    "13"->"14";
}
