digraph "void onProviderDisabled(java.lang.String)" {
    label="void onProviderDisabled(java.lang.String)";
    node [shape=box];
    "0" [style=filled,fillcolor=gray,label="r0 := @this",];
    "1" [label="r1 := @parameter0",];
    "0"->"1";
    "2" [style=filled,fillcolor=lightgray,label="return",];
    "1"->"2";
}
